%!PS-Adobe-2.0 EPSF-2.0
%%Title: ldpc_dec_prob_23.eps
%%Creator: gnuplot 5.2 patchlevel 2
%%CreationDate: Tue May 22 21:40:54 2018
%%DocumentFonts: (atend)
%%BoundingBox: 50 50 320 239
%%EndComments
%%BeginProlog
/gnudict 256 dict def
gnudict begin
%
% The following true/false flags may be edited by hand if desired.
% The unit line width and grayscale image gamma correction may also be changed.
%
/Color true def
/Blacktext false def
/Solid false def
/Dashlength 1 def
/Landscape false def
/Level1 false def
/Level3 false def
/Rounded false def
/ClipToBoundingBox false def
/SuppressPDFMark false def
/TransparentPatterns false def
/gnulinewidth 5.000 def
/userlinewidth gnulinewidth def
/Gamma 1.0 def
/BackgroundColor {-1.000 -1.000 -1.000} def
%
/vshift -46 def
/dl1 {
  10.0 Dashlength userlinewidth gnulinewidth div mul mul mul
  Rounded { currentlinewidth 0.75 mul sub dup 0 le { pop 0.01 } if } if
} def
/dl2 {
  10.0 Dashlength userlinewidth gnulinewidth div mul mul mul
  Rounded { currentlinewidth 0.75 mul add } if
} def
/hpt_ 31.5 def
/vpt_ 31.5 def
/hpt hpt_ def
/vpt vpt_ def
/doclip {
  ClipToBoundingBox {
    newpath 50 50 moveto 320 50 lineto 320 239 lineto 50 239 lineto closepath
    clip
  } if
} def
%
% Gnuplot Prolog Version 5.1 (Oct 2015)
%
%/SuppressPDFMark true def
%
/M {moveto} bind def
/L {lineto} bind def
/R {rmoveto} bind def
/V {rlineto} bind def
/N {newpath moveto} bind def
/Z {closepath} bind def
/C {setrgbcolor} bind def
/f {rlineto fill} bind def
/g {setgray} bind def
/Gshow {show} def   % May be redefined later in the file to support UTF-8
/vpt2 vpt 2 mul def
/hpt2 hpt 2 mul def
/Lshow {currentpoint stroke M 0 vshift R 
	Blacktext {gsave 0 setgray textshow grestore} {textshow} ifelse} def
/Rshow {currentpoint stroke M dup stringwidth pop neg vshift R
	Blacktext {gsave 0 setgray textshow grestore} {textshow} ifelse} def
/Cshow {currentpoint stroke M dup stringwidth pop -2 div vshift R 
	Blacktext {gsave 0 setgray textshow grestore} {textshow} ifelse} def
/UP {dup vpt_ mul /vpt exch def hpt_ mul /hpt exch def
  /hpt2 hpt 2 mul def /vpt2 vpt 2 mul def} def
/DL {Color {setrgbcolor Solid {pop []} if 0 setdash}
 {pop pop pop 0 setgray Solid {pop []} if 0 setdash} ifelse} def
/BL {stroke userlinewidth 2 mul setlinewidth
	Rounded {1 setlinejoin 1 setlinecap} if} def
/AL {stroke userlinewidth 2 div setlinewidth
	Rounded {1 setlinejoin 1 setlinecap} if} def
/UL {dup gnulinewidth mul /userlinewidth exch def
	dup 1 lt {pop 1} if 10 mul /udl exch def} def
/PL {stroke userlinewidth setlinewidth
	Rounded {1 setlinejoin 1 setlinecap} if} def
3.8 setmiterlimit
% Classic Line colors (version 5.0)
/LCw {1 1 1} def
/LCb {0 0 0} def
/LCa {0 0 0} def
/LC0 {1 0 0} def
/LC1 {0 1 0} def
/LC2 {0 0 1} def
/LC3 {1 0 1} def
/LC4 {0 1 1} def
/LC5 {1 1 0} def
/LC6 {0 0 0} def
/LC7 {1 0.3 0} def
/LC8 {0.5 0.5 0.5} def
% Default dash patterns (version 5.0)
/LTB {BL [] LCb DL} def
/LTw {PL [] 1 setgray} def
/LTb {PL [] LCb DL} def
/LTa {AL [1 udl mul 2 udl mul] 0 setdash LCa setrgbcolor} def
/LT0 {PL [] LC0 DL} def
/LT1 {PL [2 dl1 3 dl2] LC1 DL} def
/LT2 {PL [1 dl1 1.5 dl2] LC2 DL} def
/LT3 {PL [6 dl1 2 dl2 1 dl1 2 dl2] LC3 DL} def
/LT4 {PL [1 dl1 2 dl2 6 dl1 2 dl2 1 dl1 2 dl2] LC4 DL} def
/LT5 {PL [4 dl1 2 dl2] LC5 DL} def
/LT6 {PL [1.5 dl1 1.5 dl2 1.5 dl1 1.5 dl2 1.5 dl1 6 dl2] LC6 DL} def
/LT7 {PL [3 dl1 3 dl2 1 dl1 3 dl2] LC7 DL} def
/LT8 {PL [2 dl1 2 dl2 2 dl1 6 dl2] LC8 DL} def
/SL {[] 0 setdash} def
/Pnt {stroke [] 0 setdash gsave 1 setlinecap M 0 0 V stroke grestore} def
/Dia {stroke [] 0 setdash 2 copy vpt add M
  hpt neg vpt neg V hpt vpt neg V
  hpt vpt V hpt neg vpt V closepath stroke
  Pnt} def
/Pls {stroke [] 0 setdash vpt sub M 0 vpt2 V
  currentpoint stroke M
  hpt neg vpt neg R hpt2 0 V stroke
 } def
/Box {stroke [] 0 setdash 2 copy exch hpt sub exch vpt add M
  0 vpt2 neg V hpt2 0 V 0 vpt2 V
  hpt2 neg 0 V closepath stroke
  Pnt} def
/Crs {stroke [] 0 setdash exch hpt sub exch vpt add M
  hpt2 vpt2 neg V currentpoint stroke M
  hpt2 neg 0 R hpt2 vpt2 V stroke} def
/TriU {stroke [] 0 setdash 2 copy vpt 1.12 mul add M
  hpt neg vpt -1.62 mul V
  hpt 2 mul 0 V
  hpt neg vpt 1.62 mul V closepath stroke
  Pnt} def
/Star {2 copy Pls Crs} def
/BoxF {stroke [] 0 setdash exch hpt sub exch vpt add M
  0 vpt2 neg V hpt2 0 V 0 vpt2 V
  hpt2 neg 0 V closepath fill} def
/TriUF {stroke [] 0 setdash vpt 1.12 mul add M
  hpt neg vpt -1.62 mul V
  hpt 2 mul 0 V
  hpt neg vpt 1.62 mul V closepath fill} def
/TriD {stroke [] 0 setdash 2 copy vpt 1.12 mul sub M
  hpt neg vpt 1.62 mul V
  hpt 2 mul 0 V
  hpt neg vpt -1.62 mul V closepath stroke
  Pnt} def
/TriDF {stroke [] 0 setdash vpt 1.12 mul sub M
  hpt neg vpt 1.62 mul V
  hpt 2 mul 0 V
  hpt neg vpt -1.62 mul V closepath fill} def
/DiaF {stroke [] 0 setdash vpt add M
  hpt neg vpt neg V hpt vpt neg V
  hpt vpt V hpt neg vpt V closepath fill} def
/Pent {stroke [] 0 setdash 2 copy gsave
  translate 0 hpt M 4 {72 rotate 0 hpt L} repeat
  closepath stroke grestore Pnt} def
/PentF {stroke [] 0 setdash gsave
  translate 0 hpt M 4 {72 rotate 0 hpt L} repeat
  closepath fill grestore} def
/Circle {stroke [] 0 setdash 2 copy
  hpt 0 360 arc stroke Pnt} def
/CircleF {stroke [] 0 setdash hpt 0 360 arc fill} def
/C0 {BL [] 0 setdash 2 copy moveto vpt 90 450 arc} bind def
/C1 {BL [] 0 setdash 2 copy moveto
	2 copy vpt 0 90 arc closepath fill
	vpt 0 360 arc closepath} bind def
/C2 {BL [] 0 setdash 2 copy moveto
	2 copy vpt 90 180 arc closepath fill
	vpt 0 360 arc closepath} bind def
/C3 {BL [] 0 setdash 2 copy moveto
	2 copy vpt 0 180 arc closepath fill
	vpt 0 360 arc closepath} bind def
/C4 {BL [] 0 setdash 2 copy moveto
	2 copy vpt 180 270 arc closepath fill
	vpt 0 360 arc closepath} bind def
/C5 {BL [] 0 setdash 2 copy moveto
	2 copy vpt 0 90 arc
	2 copy moveto
	2 copy vpt 180 270 arc closepath fill
	vpt 0 360 arc} bind def
/C6 {BL [] 0 setdash 2 copy moveto
	2 copy vpt 90 270 arc closepath fill
	vpt 0 360 arc closepath} bind def
/C7 {BL [] 0 setdash 2 copy moveto
	2 copy vpt 0 270 arc closepath fill
	vpt 0 360 arc closepath} bind def
/C8 {BL [] 0 setdash 2 copy moveto
	2 copy vpt 270 360 arc closepath fill
	vpt 0 360 arc closepath} bind def
/C9 {BL [] 0 setdash 2 copy moveto
	2 copy vpt 270 450 arc closepath fill
	vpt 0 360 arc closepath} bind def
/C10 {BL [] 0 setdash 2 copy 2 copy moveto vpt 270 360 arc closepath fill
	2 copy moveto
	2 copy vpt 90 180 arc closepath fill
	vpt 0 360 arc closepath} bind def
/C11 {BL [] 0 setdash 2 copy moveto
	2 copy vpt 0 180 arc closepath fill
	2 copy moveto
	2 copy vpt 270 360 arc closepath fill
	vpt 0 360 arc closepath} bind def
/C12 {BL [] 0 setdash 2 copy moveto
	2 copy vpt 180 360 arc closepath fill
	vpt 0 360 arc closepath} bind def
/C13 {BL [] 0 setdash 2 copy moveto
	2 copy vpt 0 90 arc closepath fill
	2 copy moveto
	2 copy vpt 180 360 arc closepath fill
	vpt 0 360 arc closepath} bind def
/C14 {BL [] 0 setdash 2 copy moveto
	2 copy vpt 90 360 arc closepath fill
	vpt 0 360 arc} bind def
/C15 {BL [] 0 setdash 2 copy vpt 0 360 arc closepath fill
	vpt 0 360 arc closepath} bind def
/Rec {newpath 4 2 roll moveto 1 index 0 rlineto 0 exch rlineto
	neg 0 rlineto closepath} bind def
/Square {dup Rec} bind def
/Bsquare {vpt sub exch vpt sub exch vpt2 Square} bind def
/S0 {BL [] 0 setdash 2 copy moveto 0 vpt rlineto BL Bsquare} bind def
/S1 {BL [] 0 setdash 2 copy vpt Square fill Bsquare} bind def
/S2 {BL [] 0 setdash 2 copy exch vpt sub exch vpt Square fill Bsquare} bind def
/S3 {BL [] 0 setdash 2 copy exch vpt sub exch vpt2 vpt Rec fill Bsquare} bind def
/S4 {BL [] 0 setdash 2 copy exch vpt sub exch vpt sub vpt Square fill Bsquare} bind def
/S5 {BL [] 0 setdash 2 copy 2 copy vpt Square fill
	exch vpt sub exch vpt sub vpt Square fill Bsquare} bind def
/S6 {BL [] 0 setdash 2 copy exch vpt sub exch vpt sub vpt vpt2 Rec fill Bsquare} bind def
/S7 {BL [] 0 setdash 2 copy exch vpt sub exch vpt sub vpt vpt2 Rec fill
	2 copy vpt Square fill Bsquare} bind def
/S8 {BL [] 0 setdash 2 copy vpt sub vpt Square fill Bsquare} bind def
/S9 {BL [] 0 setdash 2 copy vpt sub vpt vpt2 Rec fill Bsquare} bind def
/S10 {BL [] 0 setdash 2 copy vpt sub vpt Square fill 2 copy exch vpt sub exch vpt Square fill
	Bsquare} bind def
/S11 {BL [] 0 setdash 2 copy vpt sub vpt Square fill 2 copy exch vpt sub exch vpt2 vpt Rec fill
	Bsquare} bind def
/S12 {BL [] 0 setdash 2 copy exch vpt sub exch vpt sub vpt2 vpt Rec fill Bsquare} bind def
/S13 {BL [] 0 setdash 2 copy exch vpt sub exch vpt sub vpt2 vpt Rec fill
	2 copy vpt Square fill Bsquare} bind def
/S14 {BL [] 0 setdash 2 copy exch vpt sub exch vpt sub vpt2 vpt Rec fill
	2 copy exch vpt sub exch vpt Square fill Bsquare} bind def
/S15 {BL [] 0 setdash 2 copy Bsquare fill Bsquare} bind def
/D0 {gsave translate 45 rotate 0 0 S0 stroke grestore} bind def
/D1 {gsave translate 45 rotate 0 0 S1 stroke grestore} bind def
/D2 {gsave translate 45 rotate 0 0 S2 stroke grestore} bind def
/D3 {gsave translate 45 rotate 0 0 S3 stroke grestore} bind def
/D4 {gsave translate 45 rotate 0 0 S4 stroke grestore} bind def
/D5 {gsave translate 45 rotate 0 0 S5 stroke grestore} bind def
/D6 {gsave translate 45 rotate 0 0 S6 stroke grestore} bind def
/D7 {gsave translate 45 rotate 0 0 S7 stroke grestore} bind def
/D8 {gsave translate 45 rotate 0 0 S8 stroke grestore} bind def
/D9 {gsave translate 45 rotate 0 0 S9 stroke grestore} bind def
/D10 {gsave translate 45 rotate 0 0 S10 stroke grestore} bind def
/D11 {gsave translate 45 rotate 0 0 S11 stroke grestore} bind def
/D12 {gsave translate 45 rotate 0 0 S12 stroke grestore} bind def
/D13 {gsave translate 45 rotate 0 0 S13 stroke grestore} bind def
/D14 {gsave translate 45 rotate 0 0 S14 stroke grestore} bind def
/D15 {gsave translate 45 rotate 0 0 S15 stroke grestore} bind def
/DiaE {stroke [] 0 setdash vpt add M
  hpt neg vpt neg V hpt vpt neg V
  hpt vpt V hpt neg vpt V closepath stroke} def
/BoxE {stroke [] 0 setdash exch hpt sub exch vpt add M
  0 vpt2 neg V hpt2 0 V 0 vpt2 V
  hpt2 neg 0 V closepath stroke} def
/TriUE {stroke [] 0 setdash vpt 1.12 mul add M
  hpt neg vpt -1.62 mul V
  hpt 2 mul 0 V
  hpt neg vpt 1.62 mul V closepath stroke} def
/TriDE {stroke [] 0 setdash vpt 1.12 mul sub M
  hpt neg vpt 1.62 mul V
  hpt 2 mul 0 V
  hpt neg vpt -1.62 mul V closepath stroke} def
/PentE {stroke [] 0 setdash gsave
  translate 0 hpt M 4 {72 rotate 0 hpt L} repeat
  closepath stroke grestore} def
/CircE {stroke [] 0 setdash 
  hpt 0 360 arc stroke} def
/Opaque {gsave closepath 1 setgray fill grestore 0 setgray closepath} def
/DiaW {stroke [] 0 setdash vpt add M
  hpt neg vpt neg V hpt vpt neg V
  hpt vpt V hpt neg vpt V Opaque stroke} def
/BoxW {stroke [] 0 setdash exch hpt sub exch vpt add M
  0 vpt2 neg V hpt2 0 V 0 vpt2 V
  hpt2 neg 0 V Opaque stroke} def
/TriUW {stroke [] 0 setdash vpt 1.12 mul add M
  hpt neg vpt -1.62 mul V
  hpt 2 mul 0 V
  hpt neg vpt 1.62 mul V Opaque stroke} def
/TriDW {stroke [] 0 setdash vpt 1.12 mul sub M
  hpt neg vpt 1.62 mul V
  hpt 2 mul 0 V
  hpt neg vpt -1.62 mul V Opaque stroke} def
/PentW {stroke [] 0 setdash gsave
  translate 0 hpt M 4 {72 rotate 0 hpt L} repeat
  Opaque stroke grestore} def
/CircW {stroke [] 0 setdash 
  hpt 0 360 arc Opaque stroke} def
/BoxFill {gsave Rec 1 setgray fill grestore} def
/Density {
  /Fillden exch def
  currentrgbcolor
  /ColB exch def /ColG exch def /ColR exch def
  /ColR ColR Fillden mul Fillden sub 1 add def
  /ColG ColG Fillden mul Fillden sub 1 add def
  /ColB ColB Fillden mul Fillden sub 1 add def
  ColR ColG ColB setrgbcolor} def
/BoxColFill {gsave Rec PolyFill} def
/PolyFill {gsave Density fill grestore grestore} def
/h {rlineto rlineto rlineto gsave closepath fill grestore} bind def
%
% PostScript Level 1 Pattern Fill routine for rectangles
% Usage: x y w h s a XX PatternFill
%	x,y = lower left corner of box to be filled
%	w,h = width and height of box
%	  a = angle in degrees between lines and x-axis
%	 XX = 0/1 for no/yes cross-hatch
%
/PatternFill {gsave /PFa [ 9 2 roll ] def
  PFa 0 get PFa 2 get 2 div add PFa 1 get PFa 3 get 2 div add translate
  PFa 2 get -2 div PFa 3 get -2 div PFa 2 get PFa 3 get Rec
  TransparentPatterns {} {gsave 1 setgray fill grestore} ifelse
  clip
  currentlinewidth 0.5 mul setlinewidth
  /PFs PFa 2 get dup mul PFa 3 get dup mul add sqrt def
  0 0 M PFa 5 get rotate PFs -2 div dup translate
  0 1 PFs PFa 4 get div 1 add floor cvi
	{PFa 4 get mul 0 M 0 PFs V} for
  0 PFa 6 get ne {
	0 1 PFs PFa 4 get div 1 add floor cvi
	{PFa 4 get mul 0 2 1 roll M PFs 0 V} for
 } if
  stroke grestore} def
%
/languagelevel where
 {pop languagelevel} {1} ifelse
dup 2 lt
	{/InterpretLevel1 true def
	 /InterpretLevel3 false def}
	{/InterpretLevel1 Level1 def
	 2 gt
	    {/InterpretLevel3 Level3 def}
	    {/InterpretLevel3 false def}
	 ifelse }
 ifelse
%
% PostScript level 2 pattern fill definitions
%
/Level2PatternFill {
/Tile8x8 {/PaintType 2 /PatternType 1 /TilingType 1 /BBox [0 0 8 8] /XStep 8 /YStep 8}
	bind def
/KeepColor {currentrgbcolor [/Pattern /DeviceRGB] setcolorspace} bind def
<< Tile8x8
 /PaintProc {0.5 setlinewidth pop 0 0 M 8 8 L 0 8 M 8 0 L stroke} 
>> matrix makepattern
/Pat1 exch def
<< Tile8x8
 /PaintProc {0.5 setlinewidth pop 0 0 M 8 8 L 0 8 M 8 0 L stroke
	0 4 M 4 8 L 8 4 L 4 0 L 0 4 L stroke}
>> matrix makepattern
/Pat2 exch def
<< Tile8x8
 /PaintProc {0.5 setlinewidth pop 0 0 M 0 8 L
	8 8 L 8 0 L 0 0 L fill}
>> matrix makepattern
/Pat3 exch def
<< Tile8x8
 /PaintProc {0.5 setlinewidth pop -4 8 M 8 -4 L
	0 12 M 12 0 L stroke}
>> matrix makepattern
/Pat4 exch def
<< Tile8x8
 /PaintProc {0.5 setlinewidth pop -4 0 M 8 12 L
	0 -4 M 12 8 L stroke}
>> matrix makepattern
/Pat5 exch def
<< Tile8x8
 /PaintProc {0.5 setlinewidth pop -2 8 M 4 -4 L
	0 12 M 8 -4 L 4 12 M 10 0 L stroke}
>> matrix makepattern
/Pat6 exch def
<< Tile8x8
 /PaintProc {0.5 setlinewidth pop -2 0 M 4 12 L
	0 -4 M 8 12 L 4 -4 M 10 8 L stroke}
>> matrix makepattern
/Pat7 exch def
<< Tile8x8
 /PaintProc {0.5 setlinewidth pop 8 -2 M -4 4 L
	12 0 M -4 8 L 12 4 M 0 10 L stroke}
>> matrix makepattern
/Pat8 exch def
<< Tile8x8
 /PaintProc {0.5 setlinewidth pop 0 -2 M 12 4 L
	-4 0 M 12 8 L -4 4 M 8 10 L stroke}
>> matrix makepattern
/Pat9 exch def
/Pattern1 {PatternBgnd KeepColor Pat1 setpattern} bind def
/Pattern2 {PatternBgnd KeepColor Pat2 setpattern} bind def
/Pattern3 {PatternBgnd KeepColor Pat3 setpattern} bind def
/Pattern4 {PatternBgnd KeepColor Landscape {Pat5} {Pat4} ifelse setpattern} bind def
/Pattern5 {PatternBgnd KeepColor Landscape {Pat4} {Pat5} ifelse setpattern} bind def
/Pattern6 {PatternBgnd KeepColor Landscape {Pat9} {Pat6} ifelse setpattern} bind def
/Pattern7 {PatternBgnd KeepColor Landscape {Pat8} {Pat7} ifelse setpattern} bind def
} def
%
%
%End of PostScript Level 2 code
%
/PatternBgnd {
  TransparentPatterns {} {gsave 1 setgray fill grestore} ifelse
} def
%
% Substitute for Level 2 pattern fill codes with
% grayscale if Level 2 support is not selected.
%
/Level1PatternFill {
/Pattern1 {0.250 Density} bind def
/Pattern2 {0.500 Density} bind def
/Pattern3 {0.750 Density} bind def
/Pattern4 {0.125 Density} bind def
/Pattern5 {0.375 Density} bind def
/Pattern6 {0.625 Density} bind def
/Pattern7 {0.875 Density} bind def
} def
%
% Now test for support of Level 2 code
%
Level1 {Level1PatternFill} {Level2PatternFill} ifelse
%
/Symbol-Oblique /Symbol findfont [1 0 .167 1 0 0] makefont
dup length dict begin {1 index /FID eq {pop pop} {def} ifelse} forall
currentdict end definefont pop
%
/Metrics {ExtendTextBox Gswidth} def
/Lwidth {currentpoint stroke M 0 vshift R Metrics} def
/Rwidth {currentpoint stroke M dup stringwidth pop neg vshift R Metrics} def
/Cwidth {currentpoint stroke M dup stringwidth pop -2 div vshift R Metrics} def
/GLwidth {currentpoint stroke M 0 vshift R {ExtendTextBox} forall} def
/GRwidth {currentpoint stroke M dup Gwidth vshift R {ExtendTextBox} forall} def
/GCwidth {currentpoint stroke M dup Gwidth 2 div vshift R {ExtendTextBox} forall} def
/GLwidth2 {0 Gwidth AddGlyphWidth} def
/GRwidth2 {Gwidth -1 mul 0 AddGlyphWidth} def
/GCwidth2 {Gwidth 2 div dup -1 mul AddGlyphWidth} def
/AddGlyphWidth { dup TBx2 gt {userdict /TBx2 3 -1 roll put} {pop} ifelse
                 dup TBx1 lt {userdict /TBx1 3 -1 roll put} {pop} ifelse } def
/MFshow {
   { dup 5 get 3 ge
     { 5 get 3 eq {gsave} {grestore} ifelse }
     {dup dup 0 get findfont exch 1 get scalefont setfont
     [ currentpoint ] exch dup 2 get 0 exch R dup 5 get 2 ne {dup dup 6
     get exch 4 get {textshow} {Metrics pop 0 R} ifelse }if dup 5 get 0 eq
     {dup 3 get {2 get neg 0 exch R pop} {pop aload pop M} ifelse} {dup 5
     get 1 eq {dup 2 get exch dup 3 get exch 6 get Gswidth pop -2 div
     dup 0 R} {dup 6 get Gswidth pop -2 div 0 R 6 get
     textshow 2 index {aload pop M neg 3 -1 roll neg R pop pop} {pop pop pop
     pop aload pop M} ifelse }ifelse }ifelse }
     ifelse }
   forall} def
/Gswidth {dup type /stringtype eq {stringwidth} {pop (n) stringwidth} ifelse} def
/MFwidth {0 exch { dup 5 get 3 ge { 5 get 3 eq { 0 } { pop } ifelse }
 {dup 3 get{dup dup 0 get findfont exch 1 get scalefont setfont
     6 get Gswidth pop add} {pop} ifelse} ifelse} forall} def
/MLshow { currentpoint stroke M
  0 exch R
  Blacktext {gsave 0 setgray MFshow grestore} {MFshow} ifelse } bind def
/MRshow { currentpoint stroke M
  exch dup MFwidth neg 3 -1 roll R
  Blacktext {gsave 0 setgray MFshow grestore} {MFshow} ifelse } bind def
/MCshow { currentpoint stroke M
  exch dup MFwidth -2 div 3 -1 roll R
  Blacktext {gsave 0 setgray MFshow grestore} {MFshow} ifelse } bind def
/XYsave    { [( ) 1 2 true false 3 ()] } bind def
/XYrestore { [( ) 1 2 true false 4 ()] } bind def
Level1 SuppressPDFMark or 
{} {
/SDict 10 dict def
systemdict /pdfmark known not {
  userdict /pdfmark systemdict /cleartomark get put
} if
SDict begin [
  /Title (ldpc_dec_prob_23.eps)
  /Subject (gnuplot plot)
  /Creator (gnuplot 5.2 patchlevel 2)
%  /Producer (gnuplot)
%  /Keywords ()
  /CreationDate (Tue May 22 21:40:54 2018)
  /DOCINFO pdfmark
end
} ifelse
%
% Support for boxed text - Ethan A Merritt Sep 2016
%
/InitTextBox { userdict /TBy2 3 -1 roll put userdict /TBx2 3 -1 roll put
           userdict /TBy1 3 -1 roll put userdict /TBx1 3 -1 roll put
	   /Boxing true def } def
/ExtendTextBox { dup type /stringtype eq
    { Boxing { gsave dup false charpath pathbbox
      dup TBy2 gt {userdict /TBy2 3 -1 roll put} {pop} ifelse
      dup TBx2 gt {userdict /TBx2 3 -1 roll put} {pop} ifelse
      dup TBy1 lt {userdict /TBy1 3 -1 roll put} {pop} ifelse
      dup TBx1 lt {userdict /TBx1 3 -1 roll put} {pop} ifelse
      grestore } if }
    {} ifelse} def
/PopTextBox { newpath TBx1 TBxmargin sub TBy1 TBymargin sub M
               TBx1 TBxmargin sub TBy2 TBymargin add L
	       TBx2 TBxmargin add TBy2 TBymargin add L
	       TBx2 TBxmargin add TBy1 TBymargin sub L closepath } def
/DrawTextBox { PopTextBox stroke /Boxing false def} def
/FillTextBox { gsave PopTextBox fill grestore /Boxing false def} def
0 0 0 0 InitTextBox
/TBxmargin 20 def
/TBymargin 20 def
/Boxing false def
/textshow { ExtendTextBox Gshow } def
%
end
%%EndProlog
%%Page: 1 1
gnudict begin
gsave
doclip
50 50 translate
0.050 0.050 scale
0 setgray
newpath
(Helvetica) findfont 140 scalefont setfont
BackgroundColor 0 lt 3 1 roll 0 lt exch 0 lt or or not {BackgroundColor C 1.000 0 0 5400.00 3780.00 BoxColFill} if
1.000 UL
LTb
LCb setrgbcolor
0.500 UL
LTa
LCa setrgbcolor
938 498 M
4209 0 V
stroke
1.000 UL
LTb
LCb setrgbcolor
938 498 M
31 0 V
4178 0 R
-31 0 V
stroke
0.500 UL
LTa
LCa setrgbcolor
938 558 M
4209 0 V
stroke
1.000 UL
LTb
LCb setrgbcolor
938 558 M
31 0 V
4178 0 R
-31 0 V
stroke
0.500 UL
LTa
LCa setrgbcolor
938 608 M
4209 0 V
stroke
1.000 UL
LTb
LCb setrgbcolor
938 608 M
31 0 V
4178 0 R
-31 0 V
stroke
0.500 UL
LTa
LCa setrgbcolor
938 650 M
4209 0 V
stroke
1.000 UL
LTb
LCb setrgbcolor
938 650 M
31 0 V
4178 0 R
-31 0 V
stroke
0.500 UL
LTa
LCa setrgbcolor
938 686 M
4209 0 V
stroke
1.000 UL
LTb
LCb setrgbcolor
938 686 M
31 0 V
4178 0 R
-31 0 V
stroke
0.500 UL
LTa
LCa setrgbcolor
938 718 M
4209 0 V
stroke
1.000 UL
LTb
LCb setrgbcolor
938 718 M
31 0 V
4178 0 R
-31 0 V
stroke
0.500 UL
LTa
LCa setrgbcolor
938 746 M
4209 0 V
stroke
1.000 UL
LTb
LCb setrgbcolor
938 746 M
63 0 V
4146 0 R
-63 0 V
stroke
854 746 M
[ [(Helvetica) 140.0 0.0 true true 0 (0.00010)]
] -46.7 MRshow
1.000 UL
LTb
LCb setrgbcolor
0.500 UL
LTa
LCa setrgbcolor
938 935 M
4209 0 V
stroke
1.000 UL
LTb
LCb setrgbcolor
938 935 M
31 0 V
4178 0 R
-31 0 V
stroke
0.500 UL
LTa
LCa setrgbcolor
938 1045 M
4209 0 V
stroke
1.000 UL
LTb
LCb setrgbcolor
938 1045 M
31 0 V
4178 0 R
-31 0 V
stroke
0.500 UL
LTa
LCa setrgbcolor
938 1123 M
4209 0 V
stroke
1.000 UL
LTb
LCb setrgbcolor
938 1123 M
31 0 V
4178 0 R
-31 0 V
stroke
0.500 UL
LTa
LCa setrgbcolor
938 1184 M
4209 0 V
stroke
1.000 UL
LTb
LCb setrgbcolor
938 1184 M
31 0 V
4178 0 R
-31 0 V
stroke
0.500 UL
LTa
LCa setrgbcolor
938 1233 M
4209 0 V
stroke
1.000 UL
LTb
LCb setrgbcolor
938 1233 M
31 0 V
4178 0 R
-31 0 V
stroke
0.500 UL
LTa
LCa setrgbcolor
938 1275 M
4209 0 V
stroke
1.000 UL
LTb
LCb setrgbcolor
938 1275 M
31 0 V
4178 0 R
-31 0 V
stroke
0.500 UL
LTa
LCa setrgbcolor
938 1311 M
4209 0 V
stroke
1.000 UL
LTb
LCb setrgbcolor
938 1311 M
31 0 V
4178 0 R
-31 0 V
stroke
0.500 UL
LTa
LCa setrgbcolor
938 1343 M
4209 0 V
stroke
1.000 UL
LTb
LCb setrgbcolor
938 1343 M
31 0 V
4178 0 R
-31 0 V
stroke
0.500 UL
LTa
LCa setrgbcolor
938 1372 M
4209 0 V
stroke
1.000 UL
LTb
LCb setrgbcolor
938 1372 M
63 0 V
4146 0 R
-63 0 V
stroke
854 1372 M
[ [(Helvetica) 140.0 0.0 true true 0 (0.00100)]
] -46.7 MRshow
1.000 UL
LTb
LCb setrgbcolor
0.500 UL
LTa
LCa setrgbcolor
938 1560 M
4209 0 V
stroke
1.000 UL
LTb
LCb setrgbcolor
938 1560 M
31 0 V
4178 0 R
-31 0 V
stroke
0.500 UL
LTa
LCa setrgbcolor
938 1671 M
4209 0 V
stroke
1.000 UL
LTb
LCb setrgbcolor
938 1671 M
31 0 V
4178 0 R
-31 0 V
stroke
0.500 UL
LTa
LCa setrgbcolor
938 1749 M
4209 0 V
stroke
1.000 UL
LTb
LCb setrgbcolor
938 1749 M
31 0 V
4178 0 R
-31 0 V
stroke
0.500 UL
LTa
LCa setrgbcolor
938 1809 M
4209 0 V
stroke
1.000 UL
LTb
LCb setrgbcolor
938 1809 M
31 0 V
4178 0 R
-31 0 V
stroke
0.500 UL
LTa
LCa setrgbcolor
938 1859 M
4209 0 V
stroke
1.000 UL
LTb
LCb setrgbcolor
938 1859 M
31 0 V
4178 0 R
-31 0 V
stroke
0.500 UL
LTa
LCa setrgbcolor
938 1901 M
4209 0 V
stroke
1.000 UL
LTb
LCb setrgbcolor
938 1901 M
31 0 V
4178 0 R
-31 0 V
stroke
0.500 UL
LTa
LCa setrgbcolor
938 1937 M
4209 0 V
stroke
1.000 UL
LTb
LCb setrgbcolor
938 1937 M
31 0 V
4178 0 R
-31 0 V
stroke
0.500 UL
LTa
LCa setrgbcolor
938 1969 M
4209 0 V
stroke
1.000 UL
LTb
LCb setrgbcolor
938 1969 M
31 0 V
4178 0 R
-31 0 V
stroke
0.500 UL
LTa
LCa setrgbcolor
938 1998 M
4209 0 V
stroke
1.000 UL
LTb
LCb setrgbcolor
938 1998 M
63 0 V
4146 0 R
-63 0 V
stroke
854 1998 M
[ [(Helvetica) 140.0 0.0 true true 0 (0.01000)]
] -46.7 MRshow
1.000 UL
LTb
LCb setrgbcolor
0.500 UL
LTa
LCa setrgbcolor
938 2186 M
4209 0 V
stroke
1.000 UL
LTb
LCb setrgbcolor
938 2186 M
31 0 V
4178 0 R
-31 0 V
stroke
0.500 UL
LTa
LCa setrgbcolor
938 2296 M
4209 0 V
stroke
1.000 UL
LTb
LCb setrgbcolor
938 2296 M
31 0 V
4178 0 R
-31 0 V
stroke
0.500 UL
LTa
LCa setrgbcolor
938 2374 M
4209 0 V
stroke
1.000 UL
LTb
LCb setrgbcolor
938 2374 M
31 0 V
4178 0 R
-31 0 V
stroke
0.500 UL
LTa
LCa setrgbcolor
938 2435 M
4209 0 V
stroke
1.000 UL
LTb
LCb setrgbcolor
938 2435 M
31 0 V
4178 0 R
-31 0 V
stroke
0.500 UL
LTa
LCa setrgbcolor
938 2484 M
4209 0 V
stroke
1.000 UL
LTb
LCb setrgbcolor
938 2484 M
31 0 V
4178 0 R
-31 0 V
stroke
0.500 UL
LTa
LCa setrgbcolor
938 2526 M
4209 0 V
stroke
1.000 UL
LTb
LCb setrgbcolor
938 2526 M
31 0 V
4178 0 R
-31 0 V
stroke
0.500 UL
LTa
LCa setrgbcolor
938 2563 M
4209 0 V
stroke
1.000 UL
LTb
LCb setrgbcolor
938 2563 M
31 0 V
4178 0 R
-31 0 V
stroke
0.500 UL
LTa
LCa setrgbcolor
938 2595 M
4209 0 V
stroke
1.000 UL
LTb
LCb setrgbcolor
938 2595 M
31 0 V
4178 0 R
-31 0 V
stroke
0.500 UL
LTa
LCa setrgbcolor
938 2623 M
4209 0 V
stroke
1.000 UL
LTb
LCb setrgbcolor
938 2623 M
63 0 V
4146 0 R
-63 0 V
stroke
854 2623 M
[ [(Helvetica) 140.0 0.0 true true 0 (0.10000)]
] -46.7 MRshow
1.000 UL
LTb
LCb setrgbcolor
0.500 UL
LTa
LCa setrgbcolor
938 2812 M
4209 0 V
stroke
1.000 UL
LTb
LCb setrgbcolor
938 2812 M
31 0 V
4178 0 R
-31 0 V
stroke
0.500 UL
LTa
LCa setrgbcolor
938 2922 M
84 0 V
903 0 R
3222 0 V
stroke
1.000 UL
LTb
LCb setrgbcolor
938 2922 M
31 0 V
4178 0 R
-31 0 V
stroke
0.500 UL
LTa
LCa setrgbcolor
938 3000 M
84 0 V
903 0 R
3222 0 V
stroke
1.000 UL
LTb
LCb setrgbcolor
938 3000 M
31 0 V
4178 0 R
-31 0 V
stroke
0.500 UL
LTa
LCa setrgbcolor
938 3061 M
84 0 V
903 0 R
3222 0 V
stroke
1.000 UL
LTb
LCb setrgbcolor
938 3061 M
31 0 V
4178 0 R
-31 0 V
stroke
0.500 UL
LTa
LCa setrgbcolor
938 3110 M
84 0 V
903 0 R
3222 0 V
stroke
1.000 UL
LTb
LCb setrgbcolor
938 3110 M
31 0 V
4178 0 R
-31 0 V
stroke
0.500 UL
LTa
LCa setrgbcolor
938 3152 M
84 0 V
903 0 R
3222 0 V
stroke
1.000 UL
LTb
LCb setrgbcolor
938 3152 M
31 0 V
4178 0 R
-31 0 V
stroke
0.500 UL
LTa
LCa setrgbcolor
938 3188 M
84 0 V
903 0 R
3222 0 V
stroke
1.000 UL
LTb
LCb setrgbcolor
938 3188 M
31 0 V
4178 0 R
-31 0 V
stroke
0.500 UL
LTa
LCa setrgbcolor
938 3220 M
84 0 V
903 0 R
3222 0 V
stroke
1.000 UL
LTb
LCb setrgbcolor
938 3220 M
31 0 V
4178 0 R
-31 0 V
stroke
0.500 UL
LTa
LCa setrgbcolor
938 3249 M
84 0 V
903 0 R
3222 0 V
stroke
1.000 UL
LTb
LCb setrgbcolor
938 3249 M
63 0 V
4146 0 R
-63 0 V
stroke
854 3249 M
[ [(Helvetica) 140.0 0.0 true true 0 (1.00000)]
] -46.7 MRshow
1.000 UL
LTb
LCb setrgbcolor
0.500 UL
LTa
LCa setrgbcolor
938 448 M
0 2911 V
stroke
1.000 UL
LTb
LCb setrgbcolor
938 448 M
0 63 V
0 2848 R
0 -63 V
stroke
938 308 M
[ [(Helvetica) 140.0 0.0 true true 0 ( 31)]
] -46.7 MCshow
1.000 UL
LTb
LCb setrgbcolor
0.500 UL
LTa
LCa setrgbcolor
1464 448 M
0 2428 V
0 420 R
0 63 V
stroke
1.000 UL
LTb
LCb setrgbcolor
1464 448 M
0 63 V
0 2848 R
0 -63 V
stroke
1464 308 M
[ [(Helvetica) 140.0 0.0 true true 0 ( 31.5)]
] -46.7 MCshow
1.000 UL
LTb
LCb setrgbcolor
0.500 UL
LTa
LCa setrgbcolor
1990 448 M
0 2911 V
stroke
1.000 UL
LTb
LCb setrgbcolor
1990 448 M
0 63 V
0 2848 R
0 -63 V
stroke
1990 308 M
[ [(Helvetica) 140.0 0.0 true true 0 ( 32)]
] -46.7 MCshow
1.000 UL
LTb
LCb setrgbcolor
0.500 UL
LTa
LCa setrgbcolor
2516 448 M
0 2911 V
stroke
1.000 UL
LTb
LCb setrgbcolor
2516 448 M
0 63 V
0 2848 R
0 -63 V
stroke
2516 308 M
[ [(Helvetica) 140.0 0.0 true true 0 ( 32.5)]
] -46.7 MCshow
1.000 UL
LTb
LCb setrgbcolor
0.500 UL
LTa
LCa setrgbcolor
3043 448 M
0 2911 V
stroke
1.000 UL
LTb
LCb setrgbcolor
3043 448 M
0 63 V
0 2848 R
0 -63 V
stroke
3043 308 M
[ [(Helvetica) 140.0 0.0 true true 0 ( 33)]
] -46.7 MCshow
1.000 UL
LTb
LCb setrgbcolor
0.500 UL
LTa
LCa setrgbcolor
3569 448 M
0 2911 V
stroke
1.000 UL
LTb
LCb setrgbcolor
3569 448 M
0 63 V
0 2848 R
0 -63 V
stroke
3569 308 M
[ [(Helvetica) 140.0 0.0 true true 0 ( 33.5)]
] -46.7 MCshow
1.000 UL
LTb
LCb setrgbcolor
0.500 UL
LTa
LCa setrgbcolor
4095 448 M
0 2911 V
stroke
1.000 UL
LTb
LCb setrgbcolor
4095 448 M
0 63 V
0 2848 R
0 -63 V
stroke
4095 308 M
[ [(Helvetica) 140.0 0.0 true true 0 ( 34)]
] -46.7 MCshow
1.000 UL
LTb
LCb setrgbcolor
0.500 UL
LTa
LCa setrgbcolor
4621 448 M
0 2911 V
stroke
1.000 UL
LTb
LCb setrgbcolor
4621 448 M
0 63 V
0 2848 R
0 -63 V
stroke
4621 308 M
[ [(Helvetica) 140.0 0.0 true true 0 ( 34.5)]
] -46.7 MCshow
1.000 UL
LTb
LCb setrgbcolor
0.500 UL
LTa
LCa setrgbcolor
5147 448 M
0 2911 V
stroke
1.000 UL
LTb
LCb setrgbcolor
5147 448 M
0 63 V
0 2848 R
0 -63 V
stroke
5147 308 M
[ [(Helvetica) 140.0 0.0 true true 0 ( 35)]
] -46.7 MCshow
1.000 UL
LTb
LCb setrgbcolor
1.000 UL
LTB
LCb setrgbcolor
938 3359 N
938 448 L
4209 0 V
0 2911 V
-4209 0 V
Z stroke
1.000 UP
1.000 UL
LTb
LCb setrgbcolor
3463 448 M
0 2801 V
stroke
LTb
LCb setrgbcolor
3463 448 M
0 2801 V
stroke
LTb
LCb setrgbcolor
LCb setrgbcolor
126 1903 M
currentpoint gsave translate -270 rotate 0 0 moveto
[ [(Helvetica) 140.0 0.0 true true 0 (Decoding failure probabilitiy)]
] -46.7 MCshow
grestore
LTb
LCb setrgbcolor
3042 98 M
[ [(Helvetica) 140.0 0.0 true true 0 (Loss rate \(%\))]
] -46.7 MCshow
LTb
LCb setrgbcolor
3042 3569 M
[ [(Helvetica) 140.0 0.0 true true 0 (Code rate = 2/3)]
] -46.7 MCshow
% Begin plot #1
1.000 UP
1.000 UL
LTb
0.58 0.00 0.83 C LCb setrgbcolor
1358 3226 M
[ [(Helvetica) 140.0 0.0 true true 0 (N1=5)]
] -46.7 MRshow
1.000 UP
1.000 UL
LTb
0.58 0.00 0.83 C 1442 3226 M
399 0 V
1598 23 R
-69 -1 V
-68 -2 V
-68 -8 V
-69 -17 V
-68 -29 V
-69 -43 V
-68 -57 V
-69 -73 V
-68 -88 V
-69 -99 V
-68 -118 V
-69 -127 V
-68 -132 V
-69 -140 V
-68 -138 V
-68 -141 V
-69 -164 V
-68 -178 V
-69 -200 V
-68 -122 V
-69 -207 V
-68 -91 V
1864 935 L
1796 636 L
3439 3249 Pls
3370 3248 Pls
3302 3246 Pls
3234 3238 Pls
3165 3221 Pls
3097 3192 Pls
3028 3149 Pls
2960 3092 Pls
2891 3019 Pls
2823 2931 Pls
2754 2832 Pls
2686 2714 Pls
2617 2587 Pls
2549 2455 Pls
2480 2315 Pls
2412 2177 Pls
2344 2036 Pls
2275 1872 Pls
2207 1694 Pls
2138 1494 Pls
2070 1372 Pls
2001 1165 Pls
1933 1074 Pls
1864 935 Pls
1796 636 Pls
1641 3226 Pls
% End plot #1
% Begin plot #2
1.000 UP
1.000 UL
LTb
0.00 0.62 0.45 C LCb setrgbcolor
1358 3086 M
[ [(Helvetica) 140.0 0.0 true true 0 (N1=7)]
] -46.7 MRshow
1.000 UP
1.000 UL
LTb
0.00 0.62 0.45 C 1442 3086 M
399 0 V
1598 163 R
-69 -31 V
-68 -75 V
-68 -109 V
-69 -138 V
-68 -159 V
-69 -171 V
-68 -173 V
-69 -175 V
-68 -169 V
-69 -192 V
-68 -178 V
-69 -174 V
-68 -152 V
-69 -254 V
2412 977 L
2344 825 L
2138 636 L
3439 3249 Crs
3370 3218 Crs
3302 3143 Crs
3234 3034 Crs
3165 2896 Crs
3097 2737 Crs
3028 2566 Crs
2960 2393 Crs
2891 2218 Crs
2823 2049 Crs
2754 1857 Crs
2686 1679 Crs
2617 1505 Crs
2549 1353 Crs
2480 1099 Crs
2412 977 Crs
2344 825 Crs
2138 636 Crs
1641 3086 Crs
% End plot #2
% Begin plot #3
1.000 UP
1.000 UL
LTb
0.34 0.71 0.91 C LCb setrgbcolor
1358 2946 M
[ [(Helvetica) 140.0 0.0 true true 0 (N1=9)]
] -46.7 MRshow
1.000 UP
1.000 UL
LTb
0.34 0.71 0.91 C 1442 2946 M
399 0 V
1598 303 R
-69 -73 V
-68 -126 V
-68 -154 V
-69 -173 V
-68 -177 V
-69 -183 V
-68 -208 V
-69 -162 V
-68 -175 V
-69 -208 V
-68 -257 V
-69 -169 V
-68 -139 V
2412 746 L
3439 3249 Star
3370 3176 Star
3302 3050 Star
3234 2896 Star
3165 2723 Star
3097 2546 Star
3028 2363 Star
2960 2155 Star
2891 1993 Star
2823 1818 Star
2754 1610 Star
2686 1353 Star
2617 1184 Star
2549 1045 Star
2412 746 Star
1641 2946 Star
% End plot #3
2.000 UL
LTb
LCb setrgbcolor
1.000 UL
LTB
LCb setrgbcolor
938 3359 N
938 448 L
4209 0 V
0 2911 V
-4209 0 V
Z stroke
1.000 UP
1.000 UL
LTb
LCb setrgbcolor
stroke
grestore
end
showpage
%%Trailer
%%DocumentFonts: Helvetica
